Graphics with ggplot2 (solution)
…
Data Science Lab, University of Copenhagen

01 September, 2021

Loading the core tidyverse packages and the readxl package for data import from .xlsx.

library(tidyverse)
library(readxl)

Importing the climate data from climate.xlsx1. (Change the path to the Excel file below so that it matches the path to the file saved on your own computer, or use Import Dataset in RStudio to obtain the relevant code.)

climate <- read_excel("climate.xlsx")
climate

## # A tibble: 60 x 7
##    station  year month    af  rain   sun device         
##    <chr>   <dbl> <dbl> <dbl> <dbl> <dbl> <chr>          
##  1 armagh   2016     1     5 132.   44.5 Campbell Stokes
##  2 armagh   2016     2    10  62.6  71.3 Campbell Stokes
##  3 armagh   2016     3     4  43.8 117.  Campbell Stokes
##  4 armagh   2016     4     5  54   140.  Campbell Stokes
##  5 armagh   2016     5     0  41.4 210.  Campbell Stokes
##  6 armagh   2016     6     0  75.1 114.  Campbell Stokes
##  7 armagh   2016     7     0  80.6 113.  Campbell Stokes
##  8 armagh   2016     8     0  52.5 135.  Campbell Stokes
##  9 armagh   2016     9     0  65.4  91.1 Campbell Stokes
## 10 armagh   2016    10     0  37.1  89.8 Campbell Stokes
## #  with 50 more rows
…
