V. Statistical analysis in R (solution)
…
Center for Health Data Science, University of Copenhagen

07 October, 2022

Data

### Open help page for birthwt
?birthwt

### Make a tibble with the data
birthData <- as_tibble(birthwt)
birthData

## # A tibble: 189 x 10
##      low   age   lwt  race smoke   ptl    ht    ui   ftv   bwt
##    <int> <int> <int> <int> <int> <int> <int> <int> <int> <int>
##  1     0    19   182     2     0     0     0     1     0  2523
##  2     0    33   155     3     0     0     0     0     3  2551
##  3     0    20   105     1     1     0     0     0     1  2557
##  4     0    21   108     1     1     0     0     1     2  2594
##  5     0    18   107     1     1     0     0     1     0  2600
##  6     0    21   124     3     0     0     0     0     0  2622
##  7     0    22   118     1     0     0     0     0     1  2637
##  8     0    17   103     3     0     0     0     0     1  2637
##  9     0    29   123     1     1     0     0     0     1  2663
## 10     0    26   113     1     1     0     0     0     0  2665
## #  with 179 more rows
…
