V. Statistical analysis in R (presentation)
…
Now we have done step 1 for both analyses. Next we will look specifically at the two examples. Finally, we conclude with a brief outlook on other statistical models in R.

Example A: Analysis of variance

Step 1: Data

Psoriasis is an immune-mediated disease that affects the skin. Researchers carried out an microarray experiment with skin from 37 people in order to examine a potential association between the disease and a certain gene (IGFL4). For each of the 37 samples the gene expression was measured. Fifteen skin samples were from psoriasis patients and from a part of the body affected by the disease (psor); 15 samples were from psoriasis patients but from a part of the body not affected by the disease (psne); and 7 skin samples were from healthy people (control).

The data are saved in the file psoriasis.xlsx. At first the variable type is stored as a character variable we change it to a factor (and check that indeed there are 15, 15 and 7 patients in the three groups).

psorData <- read_excel("psoriasis.xlsx")
psorData

## # A tibble: 37 x 2
##    type  IGFL4
##    <chr> <dbl>
##  1 psne  0.841
##  2 psne  0.955
##  3 psne  1.07 
##  4 psne  1.11 
##  5 psne  1.18 
##  6 psne  1.20 
##  7 psne  1.32 
##  8 psne  1.30 
##  9 psne  1.39 
## 10 psne  1.41 
## # … with 27 more rows
…
