VI. Bioinformatics in R (presentation)
…
# Extract genenames
GeneName <- expr16$GeneName

# Gather counts
expr16 <- expr16 %>%
  dplyr::select(-EntrezGeneID, -GeneName) %>%
  t() %>% 
  as_tibble() %>% 
  rename_at(vars(names(.)), ~GeneName) %>% 
  gather()

# Give it a look:
expr16

## # A tibble: 192 x 2
##    key   value
##    <chr> <dbl>
##  1 Cib1    307
##  2 Cib1    271
##  3 Cib1    434
##  4 Cib1    337
##  5 Cib1    299
##  6 Cib1    325
##  7 Cib1   1259
##  8 Cib1   1204
##  9 Cib1   3119
## 10 Cib1   2146
## #  with 182 more rows
…
