Presentation 2 – FromExceltoR
…
# A tibble: 3 × 2
  treat       n
  <chr>   <int>
1 d1         39
2 d2         39
3 placebo    39

# Is our dataset balanced?

# How many patients do we have for each age?
crohns %>% 
  count(age)

# A tibble: 43 × 2
     age     n
   <dbl> <int>
 1    19     1
 2    28     1
 3    29     1
 4    30     1
 5    33     1
 6    35     1
 7    36     1
 8    38     1
 9    39     3
10    40     2
# ℹ 33 more rows
…
Note we haven’t saved anything here, we just get output to the console sorted in a certain way. This helps us to check if the data looks correct and get an impression.

Filtering data (selecting rows) with filter()

How we subset dataset into subsets we find interesting. For example only female patients:

crohns %>% 
  filter(sex == 'F') # processed from left to right

# A tibble: 100 × 9
      ID nrAdvE   BMI height country sex     age weight treat  
   <dbl>  <dbl> <dbl>  <dbl> <chr>   <chr> <dbl>  <dbl> <chr>  
 1 19908      4  25.2    163 c1      F        47     67 placebo
 2 19909      4  23.8    164 c1      F        53     64 d1     
 3 19910      1  23.0    164 c1      F        68     62 placebo
 4 20908      1  25.7    165 c1      F        48     70 d2     
 5 20909      2  26.0    170 c1      F        67     75 placebo
 6 20910      2  28.7    168 c1      F        54     81 d1     
 7 21908      3  26.6    161 c1      F        53     69 d1     
 8 21909      0  26.2    168 c1      F        53     74 placebo
 9 21910      1  32.0    154 c1      F        47     76 d2     
10 21911      0  33.3    157 c1      F        58     82 placebo
# ℹ 90 more rows

A great about tidyverse: write code the way you think. You always filter by defining conditions. If the condition evaluates to ‘TRUE’ the line is included. See only data lines for patients over 65:

crohns %>% 
  filter(age > 65)

# A tibble: 21 × 9
      ID nrAdvE   BMI height country sex     age weight treat  
   <dbl>  <dbl> <dbl>  <dbl> <chr>   <chr> <dbl>  <dbl> <chr>  
 1 19910      1  23.0    164 c1      F        68     62 placebo
 2 20909      2  26.0    170 c1      F        67     75 placebo
 3 22908      5  18.2    159 c1      F        66     46 d2     
 4 22909      8  30.8    156 c1      M        71     75 placebo
 5 22911      3  24.8    182 c1      M        68     82 d2     
 6 22914      3  25.2    157 c1      F        75     62 d2     
 7 24912      0  25.2    162 c1      F        69     66 placebo
 8 25920      1  27.9    164 c1      F        69     75 d1     
 9 26908      0  25.8    150 c1      F        73     58 d1     
10 26910      0  19.1    165 c1      F        66     52 d1     
# ℹ 11 more rows

From the above commands we are getting the result printed to the console. This is useful to check something. To save the result, we need to re-assign:

seniors <- crohns %>% 
  filter(age > 65)

View newly created data frame:

seniors

# A tibble: 21 × 9
      ID nrAdvE   BMI height country sex     age weight treat  
   <dbl>  <dbl> <dbl>  <dbl> <chr>   <chr> <dbl>  <dbl> <chr>  
 1 19910      1  23.0    164 c1      F        68     62 placebo
 2 20909      2  26.0    170 c1      F        67     75 placebo
 3 22908      5  18.2    159 c1      F        66     46 d2     
 4 22909      8  30.8    156 c1      M        71     75 placebo
 5 22911      3  24.8    182 c1      M        68     82 d2     
 6 22914      3  25.2    157 c1      F        75     62 d2     
 7 24912      0  25.2    162 c1      F        69     66 placebo
 8 25920      1  27.9    164 c1      F        69     75 d1     
 9 26908      0  25.8    150 c1      F        73     58 d1     
10 26910      0  19.1    165 c1      F        66     52 d1     
# ℹ 11 more rows
…
The world of conditional operators

Now we get lines that fit certain conditions but what if I want to filter on more than one condition? Enter conditional operators!

The ‘and’ operator: &

We can also subset on several conditions. Here are younger patients who received drug 1:

crohns %>% 
  filter(age <= 65 & treat == 'd1')

# A tibble: 33 × 9
      ID nrAdvE   BMI height country sex     age weight treat
   <dbl>  <dbl> <dbl>  <dbl> <chr>   <chr> <dbl>  <dbl> <chr>
 1 19909      4  23.8    164 c1      F        53     64 d1   
 2 20910      2  28.7    168 c1      F        54     81 d1   
 3 21908      3  26.6    161 c1      F        53     69 d1   
 4 21916      0  23.9    177 c1      M        56     75 d1   
 5 22916      2  30.9    163 c1      F        53     82 d1   
 6 23908      0  30.4    158 c1      F        55     76 d1   
 7 23909      0  23.4    156 c1      F        44     57 d1   
 8 23910      0  26.7    156 c1      F        59     65 d1   
 9 23912      0  16      150 c1      F        28     36 d1   
10 24909      0  22.5    155 c1      F        52     54 d1   
# ℹ 23 more rows

The ‘or’ operator: |

Get patients that were treated with either drug 1 or the placebo:

crohns %>% 
  filter(treat == 'placebo' | treat == 'd1')

# A tibble: 78 × 9
      ID nrAdvE   BMI height country sex     age weight treat  
   <dbl>  <dbl> <dbl>  <dbl> <chr>   <chr> <dbl>  <dbl> <chr>  
 1 19908      4  25.2    163 c1      F        47     67 placebo
 2 19909      4  23.8    164 c1      F        53     64 d1     
 3 19910      1  23.0    164 c1      F        68     62 placebo
 4 20909      2  26.0    170 c1      F        67     75 placebo
 5 20910      2  28.7    168 c1      F        54     81 d1     
 6 21908      3  26.6    161 c1      F        53     69 d1     
 7 21909      0  26.2    168 c1      F        53     74 placebo
 8 21911      0  33.3    157 c1      F        58     82 placebo
 9 21914      6  28.4    170 c1      M        58     82 placebo
10 21916      0  23.9    177 c1      M        56     75 d1     
# ℹ 68 more rows

The ‘not’ operator: !

crohns %>% 
  filter(treat != 'placebo')

# A tibble: 78 × 9
      ID nrAdvE   BMI height country sex     age weight treat
   <dbl>  <dbl> <dbl>  <dbl> <chr>   <chr> <dbl>  <dbl> <chr>
 1 19909      4  23.8    164 c1      F        53     64 d1   
 2 20908      1  25.7    165 c1      F        48     70 d2   
 3 20910      2  28.7    168 c1      F        54     81 d1   
 4 21908      3  26.6    161 c1      F        53     69 d1   
 5 21910      1  32.0    154 c1      F        47     76 d2   
 6 21912      5  32.5    152 c1      F        63     75 d2   
 7 21913      2  37.6    159 c1      F        54     95 d2   
 8 21915      0  23.0    160 c1      F        54     59 d2   
 9 21916      0  23.9    177 c1      M        56     75 d1   
10 21917      0  36.4    164 c1      F        51     98 d2   
# ℹ 68 more rows

Other conditional operators can be found in the first presentation or when querying the function (or just google it).

?dplyr::filter

You can also allow multiple arguments in a variable. Here are the young patients who got treatment with either drug 1 or 2:

crohns %>% 
  filter(age <= 65 & treat %in% c("d1","d2"))

# A tibble: 67 × 9
      ID nrAdvE   BMI height country sex     age weight treat
   <dbl>  <dbl> <dbl>  <dbl> <chr>   <chr> <dbl>  <dbl> <chr>
 1 19909      4  23.8    164 c1      F        53     64 d1   
 2 20908      1  25.7    165 c1      F        48     70 d2   
 3 20910      2  28.7    168 c1      F        54     81 d1   
 4 21908      3  26.6    161 c1      F        53     69 d1   
 5 21910      1  32.0    154 c1      F        47     76 d2   
 6 21912      5  32.5    152 c1      F        63     75 d2   
 7 21913      2  37.6    159 c1      F        54     95 d2   
 8 21915      0  23.0    160 c1      F        54     59 d2   
 9 21916      0  23.9    177 c1      M        56     75 d1   
10 21917      0  36.4    164 c1      F        51     98 d2   
# ℹ 57 more rows

Selecting variables (columns) with select()

We can choose to only include certain columns. Here, we select only BMI, age and the number of adverse events:

crohns %>% 
  select(nrAdvE, BMI, age)

# A tibble: 117 × 3
   nrAdvE   BMI   age
    <dbl> <dbl> <dbl>
 1      4  25.2    47
 2      4  23.8    53
 3      1  23.0    68
 4      1  25.7    48
 5      2  26.0    67
 6      2  28.7    54
 7      3  26.6    53
 8      0  26.2    53
 9      1  32.0    47
10      0  33.3    58
# ℹ 107 more rows

We can also make a negative selection that excludes the named column(s). The ID doesn’t give us any information since the data is anonymized:

without_id <- crohns %>% 
  select(-ID)

We have saved the dataset without the ID column in at new variable. Let’s have a look at this:

without_id

# A tibble: 117 × 8
   nrAdvE   BMI height country sex     age weight treat  
    <dbl> <dbl>  <dbl> <chr>   <chr> <dbl>  <dbl> <chr>  
 1      4  25.2    163 c1      F        47     67 placebo
 2      4  23.8    164 c1      F        53     64 d1     
 3      1  23.0    164 c1      F        68     62 placebo
 4      1  25.7    165 c1      F        48     70 d2     
 5      2  26.0    170 c1      F        67     75 placebo
 6      2  28.7    168 c1      F        54     81 d1     
 7      3  26.6    161 c1      F        53     69 d1     
 8      0  26.2    168 c1      F        53     74 placebo
 9      1  32.0    154 c1      F        47     76 d2     
10      0  33.3    157 c1      F        58     82 placebo
# ℹ 107 more rows

Transformation of data with mutate()

We can create new columns based on other columns with the mutate() function.

This is our original tibble:

crohns

# A tibble: 117 × 9
      ID nrAdvE   BMI height country sex     age weight treat  
   <dbl>  <dbl> <dbl>  <dbl> <chr>   <chr> <dbl>  <dbl> <chr>  
 1 19908      4  25.2    163 c1      F        47     67 placebo
 2 19909      4  23.8    164 c1      F        53     64 d1     
 3 19910      1  23.0    164 c1      F        68     62 placebo
 4 20908      1  25.7    165 c1      F        48     70 d2     
 5 20909      2  26.0    170 c1      F        67     75 placebo
 6 20910      2  28.7    168 c1      F        54     81 d1     
 7 21908      3  26.6    161 c1      F        53     69 d1     
 8 21909      0  26.2    168 c1      F        53     74 placebo
 9 21910      1  32.0    154 c1      F        47     76 d2     
10 21911      0  33.3    157 c1      F        58     82 placebo
# ℹ 107 more rows

We want to add height in meters in a new column. It is important to reassign the dataframe if you want to save the new column.

crohns <- crohns %>% 
  mutate(height_m = height/100)

crohns

# A tibble: 117 × 10
      ID nrAdvE   BMI height country sex     age weight treat   height_m
   <dbl>  <dbl> <dbl>  <dbl> <chr>   <chr> <dbl>  <dbl> <chr>      <dbl>
 1 19908      4  25.2    163 c1      F        47     67 placebo     1.63
 2 19909      4  23.8    164 c1      F        53     64 d1          1.64
 3 19910      1  23.0    164 c1      F        68     62 placebo     1.64
 4 20908      1  25.7    165 c1      F        48     70 d2          1.65
 5 20909      2  26.0    170 c1      F        67     75 placebo     1.7 
 6 20910      2  28.7    168 c1      F        54     81 d1          1.68
 7 21908      3  26.6    161 c1      F        53     69 d1          1.61
 8 21909      0  26.2    168 c1      F        53     74 placebo     1.68
 9 21910      1  32.0    154 c1      F        47     76 d2          1.54
10 21911      0  33.3    157 c1      F        58     82 placebo     1.57
# ℹ 107 more rows

We can also create columns based on TRUE/FALSE conditions. According to the CDC, a person with a BMI < 18.5 is underweight:

crohns <- crohns %>% 
  mutate(underweight = ifelse(BMI < 18.5, "Yes", "No"))

crohns

# A tibble: 117 × 11
      ID nrAdvE   BMI height country sex     age weight treat   height_m
   <dbl>  <dbl> <dbl>  <dbl> <chr>   <chr> <dbl>  <dbl> <chr>      <dbl>
 1 19908      4  25.2    163 c1      F        47     67 placebo     1.63
 2 19909      4  23.8    164 c1      F        53     64 d1          1.64
 3 19910      1  23.0    164 c1      F        68     62 placebo     1.64
 4 20908      1  25.7    165 c1      F        48     70 d2          1.65
 5 20909      2  26.0    170 c1      F        67     75 placebo     1.7 
 6 20910      2  28.7    168 c1      F        54     81 d1          1.68
 7 21908      3  26.6    161 c1      F        53     69 d1          1.61
 8 21909      0  26.2    168 c1      F        53     74 placebo     1.68
 9 21910      1  32.0    154 c1      F        47     76 d2          1.54
10 21911      0  33.3    157 c1      F        58     82 placebo     1.57
# ℹ 107 more rows
# ℹ 1 more variable: underweight <chr>
…
# A tibble: 1 × 3
  mean_age max_age number_lines
     <dbl>   <dbl>        <int>
1     54.7      75          117

Note that R is tolerant of BE/AE spelling differences. summarise() and summarize() are the same function, likewise with color and colour.

Grouping with group_by()

The function group_by() imposes a grouping on a tibble. Group according to sex:

crohns %>%
  group_by(sex)

# A tibble: 117 × 11
# Groups:   sex [2]
      ID nrAdvE   BMI height country sex     age weight treat   height_m
   <dbl>  <dbl> <dbl>  <dbl> <chr>   <chr> <dbl>  <dbl> <chr>      <dbl>
 1 19908      4  25.2    163 c1      F        47     67 placebo     1.63
 2 19909      4  23.8    164 c1      F        53     64 d1          1.64
 3 19910      1  23.0    164 c1      F        68     62 placebo     1.64
 4 20908      1  25.7    165 c1      F        48     70 d2          1.65
 5 20909      2  26.0    170 c1      F        67     75 placebo     1.7 
 6 20910      2  28.7    168 c1      F        54     81 d1          1.68
 7 21908      3  26.6    161 c1      F        53     69 d1          1.61
 8 21909      0  26.2    168 c1      F        53     74 placebo     1.68
 9 21910      1  32.0    154 c1      F        47     76 d2          1.54
10 21911      0  33.3    157 c1      F        58     82 placebo     1.57
# ℹ 107 more rows
# ℹ 1 more variable: underweight <chr>

We can also group according to several variables. How many groups will we get?

crohns %>%
  group_by(sex, treat)

# A tibble: 117 × 11
# Groups:   sex, treat [6]
      ID nrAdvE   BMI height country sex     age weight treat   height_m
   <dbl>  <dbl> <dbl>  <dbl> <chr>   <chr> <dbl>  <dbl> <chr>      <dbl>
 1 19908      4  25.2    163 c1      F        47     67 placebo     1.63
 2 19909      4  23.8    164 c1      F        53     64 d1          1.64
 3 19910      1  23.0    164 c1      F        68     62 placebo     1.64
 4 20908      1  25.7    165 c1      F        48     70 d2          1.65
 5 20909      2  26.0    170 c1      F        67     75 placebo     1.7 
 6 20910      2  28.7    168 c1      F        54     81 d1          1.68
 7 21908      3  26.6    161 c1      F        53     69 d1          1.61
 8 21909      0  26.2    168 c1      F        53     74 placebo     1.68
 9 21910      1  32.0    154 c1      F        47     76 d2          1.54
10 21911      0  33.3    157 c1      F        58     82 placebo     1.57
# ℹ 107 more rows
# ℹ 1 more variable: underweight <chr>
…
